NEXA Cours R: Mini Projet - Part-1b
…
Rows: 2368 Columns: 13
── Column specification ────────────────────────────────────────────────────────
Delimiter: "\t"
chr (4): customer_id, age_group, plan_type, complain_registered
dbl (8): age, customer_value, subscription_in_months, nb_call_seconds, nb_ca...
lgl (1): lost_customer

ℹ Use `spec()` to retrieve the full column specification for this data.
ℹ Specify the column types or set `show_col_types = FALSE` to quiet this message.

df_data

# A tibble: 2,368 × 13
   customer_id   age age_group plan_type  customer_value subscription_in_months
   <chr>       <dbl> <chr>     <chr>               <dbl>                  <dbl>
 1 Client0001     30 Group_3   PayAsYouGo           198.                     38
 2 Client0003     30 Group_3   PayAsYouGo          1537.                     37
 3 Client0004     15 Group_1   PayAsYouGo           240.                     38
 4 Client0005     15 Group_1   PayAsYouGo           146.                     38
 5 Client0006     30 Group_3   PayAsYouGo           282.                     38
 6 Client0007     30 Group_3   PayAsYouGo          1236.                     38
 7 Client0008     30 Group_3   PayAsYouGo           945.                     37
 8 Client0009     30 Group_3   PayAsYouGo           558.                     38
 9 Client0010     30 Group_3   PayAsYouGo           192.                     38
10 Client0011     30 Group_3   PayAsYouGo           269.                     38
# ℹ 2,358 more rows
# ℹ 7 more variables: complain_registered <chr>, lost_customer <lgl>,
#   nb_call_seconds <dbl>, nb_calls <dbl>, nb_lost_calls <dbl>, nb_sms <dbl>,
#   nb_distinct_numbers <dbl>
…
