Recettes pour le Data Wrangling
…
Rows: 25 Columns: 5
── Column specification ────────────────────────────────────────────────────────
Delimiter: ","
chr (2): Subject_Id, Sex
dbl (3): Age, Biomarker_1, Biomarker_2

ℹ Use `spec()` to retrieve the full column specification for this data.
ℹ Specify the column types or set `show_col_types = FALSE` to quiet this message.

df_data

# A tibble: 25 × 5
   Subject_Id   Age Sex    Biomarker_1 Biomarker_2
   <chr>      <dbl> <chr>        <dbl>       <dbl>
 1 SUBJ1       69.6 Female        195.        65.3
 2 SUBJ2       48.1 Female        193.        67.2
 3 SUBJ3       30.3 Female        132.        65.6
 4 SUBJ4       79.0 Female        104.        59.8
 5 SUBJ5       44.1 Female        130.        26.3
 6 SUBJ6       66.0 Female        167.        67.6
 7 SUBJ7       25.5 Male          161.        36.1
 8 SUBJ8       73.7 Female        195.        70.1
 9 SUBJ9       68.1 Female        194.        53.7
10 SUBJ10      57.8 Male          181.        23.7
# ℹ 15 more rows
…
Rows: 25 Columns: 5
── Column specification ────────────────────────────────────────────────────────
Delimiter: "\t"
chr (2): Subject_Id, Sex
dbl (3): Age, Biomarker_1, Biomarker_2

ℹ Use `spec()` to retrieve the full column specification for this data.
ℹ Specify the column types or set `show_col_types = FALSE` to quiet this message.

df_data

# A tibble: 25 × 5
   Subject_Id   Age Sex    Biomarker_1 Biomarker_2
   <chr>      <dbl> <chr>        <dbl>       <dbl>
 1 SUBJ1       69.6 Female        195.        65.3
 2 SUBJ2       48.1 Female        193.        67.2
 3 SUBJ3       30.3 Female        132.        65.6
 4 SUBJ4       79.0 Female        104.        59.8
 5 SUBJ5       44.1 Female        130.        26.3
 6 SUBJ6       66.0 Female        167.        67.6
 7 SUBJ7       25.5 Male          161.        36.1
 8 SUBJ8       73.7 Female        195.        70.1
 9 SUBJ9       68.1 Female        194.        53.7
10 SUBJ10      57.8 Male          181.        23.7
# ℹ 15 more rows
…
Recette 1c: charger des fichiers Excel (.xls ou .xlsx)

df_data <- readxl::read_excel(path = here::here("data/wrangling_files/synthetic_data_2024-11-24.xlsx"), 
                   # specify name or index of the sheet to read
                   sheet = "sheet_2",
                   # consider the first row for column names
                   col_names = TRUE, 
                   # ability to skip the N first rows if needed
                   skip = 0,
                   # ability to force a variable type per column, by default it guesses
                   col_types = NULL)

df_data

# A tibble: 25 × 5
   Subject_Id   Age Sex    Biomarker_1 Biomarker_2
   <chr>      <dbl> <chr>        <dbl>       <dbl>
 1 SUBJ1       69.6 Female        195.        65.3
 2 SUBJ2       48.1 Female        193.        67.2
 3 SUBJ3       30.3 Female        132.        65.6
 4 SUBJ4       79.0 Female        104.        59.8
 5 SUBJ5       44.1 Female        130.        26.3
 6 SUBJ6       66.0 Female        167.        67.6
 7 SUBJ7       25.5 Male          161.        36.1
 8 SUBJ8       73.7 Female        195.        70.1
 9 SUBJ9       68.1 Female        194.        53.7
10 SUBJ10      57.8 Male          181.        23.7
# ℹ 15 more rows
…
Warning in rnorm(n = nb_subjects, mean = dplyr::case_when(Sex == "Female" ~ :
NAs produced

synthetic_data

# A tibble: 25 × 5
   Subject_Id   Age Sex    Biomarker_1 Biomarker_2
   <chr>      <dbl> <chr>        <dbl>       <dbl>
 1 SUBJ1       74.9 Male          134.        43.2
 2 SUBJ2       76.2 Female        140.        52.2
 3 SUBJ3       37.2 <NA>          117.       NaN  
 4 SUBJ4       69.8 Female        166.        75.8
 5 SUBJ5       58.5 <NA>          131.       NaN  
 6 SUBJ6       51.1 Male          162.        46.4
 7 SUBJ7       64.2 <NA>          173.       NaN  
 8 SUBJ8       28.1 Female        165.        60.9
 9 SUBJ9       59.4 Male          132.        42.8
10 SUBJ10      62.3 Female        166.        66.8
# ℹ 15 more rows
…
# voir aussi str(synthetic_data)

Préparation des données

Selection, Renommage and Reorganisation des colonnes

Recette 4a: selection des colonnes

# use variable names to select them
synthetic_data_mini <- synthetic_data |> 
                        dplyr::select(Subject_Id, Age, Sex)
synthetic_data_mini

# A tibble: 25 × 3
   Subject_Id   Age Sex   
   <chr>      <dbl> <chr> 
 1 SUBJ1       74.9 Male  
 2 SUBJ2       76.2 Female
 3 SUBJ3       37.2 <NA>  
 4 SUBJ4       69.8 Female
 5 SUBJ5       58.5 <NA>  
 6 SUBJ6       51.1 Male  
 7 SUBJ7       64.2 <NA>  
 8 SUBJ8       28.1 Female
 9 SUBJ9       59.4 Male  
10 SUBJ10      62.3 Female
# ℹ 15 more rows

Recette 4b: Reorganisation des colonnes

# swap column order according to list of variables provided
synthetic_data |> 
  dplyr::select(Subject_Id, Sex, Age, Biomarker_2, Biomarker_1)

# A tibble: 25 × 5
   Subject_Id Sex      Age Biomarker_2 Biomarker_1
   <chr>      <chr>  <dbl>       <dbl>       <dbl>
 1 SUBJ1      Male    74.9        43.2        134.
 2 SUBJ2      Female  76.2        52.2        140.
 3 SUBJ3      <NA>    37.2       NaN          117.
 4 SUBJ4      Female  69.8        75.8        166.
 5 SUBJ5      <NA>    58.5       NaN          131.
 6 SUBJ6      Male    51.1        46.4        162.
 7 SUBJ7      <NA>    64.2       NaN          173.
 8 SUBJ8      Female  28.1        60.9        165.
 9 SUBJ9      Male    59.4        42.8        132.
10 SUBJ10     Female  62.3        66.8        166.
# ℹ 15 more rows

# see also: dplyr::relocate()

Recette 4c: Renommage des colonnes

# rename column names
synthetic_data |> 
  dplyr::rename(DonorId = Subject_Id, 
                Age_VO = Age)

# A tibble: 25 × 5
   DonorId Age_VO Sex    Biomarker_1 Biomarker_2
   <chr>    <dbl> <chr>        <dbl>       <dbl>
 1 SUBJ1     74.9 Male          134.        43.2
 2 SUBJ2     76.2 Female        140.        52.2
 3 SUBJ3     37.2 <NA>          117.       NaN  
 4 SUBJ4     69.8 Female        166.        75.8
 5 SUBJ5     58.5 <NA>          131.       NaN  
 6 SUBJ6     51.1 Male          162.        46.4
 7 SUBJ7     64.2 <NA>          173.       NaN  
 8 SUBJ8     28.1 Female        165.        60.9
 9 SUBJ9     59.4 Male          132.        42.8
10 SUBJ10    62.3 Female        166.        66.8
# ℹ 15 more rows

Reformatting Data Types

Recette 5a: convertion de caractères en facteurs

Convertir une colonne de type caractère en facteur permet de contrôler l’ordre des différents niveaux. Cela est important à la fois pour la visualisation (par exemple, ordonner les catégories d’un diagramme en barres) et pour l’analyse (par exemple, déterminer quel niveau sera utilisé comme référence).

# convert column to factor
synthetic_data |>
  dplyr::mutate(Sex = factor(Sex, levels = c("Male", "Female")))

# A tibble: 25 × 5
   Subject_Id   Age Sex    Biomarker_1 Biomarker_2
   <chr>      <dbl> <fct>        <dbl>       <dbl>
 1 SUBJ1       74.9 Male          134.        43.2
 2 SUBJ2       76.2 Female        140.        52.2
 3 SUBJ3       37.2 <NA>          117.       NaN  
 4 SUBJ4       69.8 Female        166.        75.8
 5 SUBJ5       58.5 <NA>          131.       NaN  
 6 SUBJ6       51.1 Male          162.        46.4
 7 SUBJ7       64.2 <NA>          173.       NaN  
 8 SUBJ8       28.1 Female        165.        60.9
 9 SUBJ9       59.4 Male          132.        42.8
10 SUBJ10      62.3 Female        166.        66.8
# ℹ 15 more rows
…
Selectionner les Observations

Ordonner les lignes

Recette 6a: ordonner en fonction d’une ou plusieures colonnes

desc() indique le sens contraire

synthetic_data |> 
  # order by Sex categories, and decreasing Age
  dplyr::arrange(Sex, desc(Age))

# A tibble: 25 × 5
   Subject_Id   Age Sex    Biomarker_1 Biomarker_2
   <chr>      <dbl> <chr>        <dbl>       <dbl>
 1 SUBJ17      78.7 Female        136.        61.9
 2 SUBJ16      76.4 Female        158.        56.3
 3 SUBJ2       76.2 Female        140.        52.2
 4 SUBJ13      76.1 Female        118.        30.1
 5 SUBJ4       69.8 Female        166.        75.8
 6 SUBJ12      63.1 Female        125.        60.9
 7 SUBJ10      62.3 Female        166.        66.8
 8 SUBJ20      53.6 Female        113.        74.0
 9 SUBJ8       28.1 Female        165.        60.9
10 SUBJ18      27.0 Female        160.        65.8
# ℹ 15 more rows
…
Selection des Colonnes

Recette 7a: selection de colonnes par nom ou motif

# select subject_id column, and any column names containing string "Biomarker"
synthetic_data |> 
  dplyr::select(Subject_Id, tidyselect::contains("Biomarker"))

# A tibble: 25 × 3
   Subject_Id Biomarker_1 Biomarker_2
   <chr>            <dbl>       <dbl>
 1 SUBJ1             134.        43.2
 2 SUBJ2             140.        52.2
 3 SUBJ3             117.       NaN  
 4 SUBJ4             166.        75.8
 5 SUBJ5             131.       NaN  
 6 SUBJ6             162.        46.4
 7 SUBJ7             173.       NaN  
 8 SUBJ8             165.        60.9
 9 SUBJ9             132.        42.8
10 SUBJ10            166.        66.8
# ℹ 15 more rows

# see also: tidyselect::start_with(), ends_with(), matches()

Recette 7b: Enlever une colonne par nom

# remove Age and Sex columns by using the minus symbol
synthetic_data |> 
  dplyr::select(-Age, -Sex)

# A tibble: 25 × 3
   Subject_Id Biomarker_1 Biomarker_2
   <chr>            <dbl>       <dbl>
 1 SUBJ1             134.        43.2
 2 SUBJ2             140.        52.2
 3 SUBJ3             117.       NaN  
 4 SUBJ4             166.        75.8
 5 SUBJ5             131.       NaN  
 6 SUBJ6             162.        46.4
 7 SUBJ7             173.       NaN  
 8 SUBJ8             165.        60.9
 9 SUBJ9             132.        42.8
10 SUBJ10            166.        66.8
# ℹ 15 more rows

Creation et Transformation de Variables

Recette 8a: ajouter une nouvelle variable

# create a new variable based on existing ones
synthetic_data |> dplyr::mutate(Biomarker_Ratio = Biomarker_2/Biomarker_1)

# A tibble: 25 × 6
   Subject_Id   Age Sex    Biomarker_1 Biomarker_2 Biomarker_Ratio
   <chr>      <dbl> <chr>        <dbl>       <dbl>           <dbl>
 1 SUBJ1       74.9 Male          134.        43.2           0.323
 2 SUBJ2       76.2 Female        140.        52.2           0.372
 3 SUBJ3       37.2 <NA>          117.       NaN           NaN    
 4 SUBJ4       69.8 Female        166.        75.8           0.456
 5 SUBJ5       58.5 <NA>          131.       NaN           NaN    
 6 SUBJ6       51.1 Male          162.        46.4           0.287
 7 SUBJ7       64.2 <NA>          173.       NaN           NaN    
 8 SUBJ8       28.1 Female        165.        60.9           0.370
 9 SUBJ9       59.4 Male          132.        42.8           0.324
10 SUBJ10      62.3 Female        166.        66.8           0.403
# ℹ 15 more rows

Recette 8b: normalisation d’une variable basée sur le z-score

synthetic_data |> 
  dplyr::mutate(Biomarker1_zscore = scale(Biomarker_1, center = TRUE, scale=TRUE))

# A tibble: 25 × 6
   Subject_Id   Age Sex    Biomarker_1 Biomarker_2 Biomarker1_zscore[,1]
   <chr>      <dbl> <chr>        <dbl>       <dbl>                 <dbl>
 1 SUBJ1       74.9 Male          134.        43.2                -0.421
 2 SUBJ2       76.2 Female        140.        52.2                -0.157
 3 SUBJ3       37.2 <NA>          117.       NaN                  -1.12 
 4 SUBJ4       69.8 Female        166.        75.8                 0.925
 5 SUBJ5       58.5 <NA>          131.       NaN                  -0.529
 6 SUBJ6       51.1 Male          162.        46.4                 0.740
 7 SUBJ7       64.2 <NA>          173.       NaN                   1.20 
 8 SUBJ8       28.1 Female        165.        60.9                 0.861
 9 SUBJ9       59.4 Male          132.        42.8                -0.503
10 SUBJ10      62.3 Female        166.        66.8                 0.911
# ℹ 15 more rows

Recette 8c: modification d’une variable caractère avec le package StringR

# replace the prefix from a character variable
synthetic_data |> 
  dplyr::mutate(Subject_Id = stringr::str_replace(Subject_Id, 
                pattern = "SUBJ",
                replacement = "Donor_"))

# A tibble: 25 × 5
   Subject_Id   Age Sex    Biomarker_1 Biomarker_2
   <chr>      <dbl> <chr>        <dbl>       <dbl>
 1 Donor_1     74.9 Male          134.        43.2
 2 Donor_2     76.2 Female        140.        52.2
 3 Donor_3     37.2 <NA>          117.       NaN  
 4 Donor_4     69.8 Female        166.        75.8
 5 Donor_5     58.5 <NA>          131.       NaN  
 6 Donor_6     51.1 Male          162.        46.4
 7 Donor_7     64.2 <NA>          173.       NaN  
 8 Donor_8     28.1 Female        165.        60.9
 9 Donor_9     59.4 Male          132.        42.8
10 Donor_10    62.3 Female        166.        66.8
# ℹ 15 more rows
# See ?stringr for more string manipulation options
# https://stringr.tidyverse.org

Recette 8d: appliquer une fonction à plusieures colonnes

# apply the log transformation across all columns with Biomarker in their name
synthetic_data |> 
  dplyr::mutate(across(contains("Biomarker"), 
                       # function to apply. '~' is used to specify a function
                       ~ log(.x), 
                       # name transformed columns according to col name + "_log"
                       # if not specified, it overwrites the variables
                       .names = "{.col}_log"))

# A tibble: 25 × 7
   Subject_Id   Age Sex    Biomarker_1 Biomarker_2 Biomarker_1_log
   <chr>      <dbl> <chr>        <dbl>       <dbl>           <dbl>
 1 SUBJ1       74.9 Male          134.        43.2            4.90
 2 SUBJ2       76.2 Female        140.        52.2            4.94
 3 SUBJ3       37.2 <NA>          117.       NaN              4.76
 4 SUBJ4       69.8 Female        166.        75.8            5.11
 5 SUBJ5       58.5 <NA>          131.       NaN              4.88
 6 SUBJ6       51.1 Male          162.        46.4            5.09
 7 SUBJ7       64.2 <NA>          173.       NaN              5.15
 8 SUBJ8       28.1 Female        165.        60.9            5.10
 9 SUBJ9       59.4 Male          132.        42.8            4.88
10 SUBJ10      62.3 Female        166.        66.8            5.11
# ℹ 15 more rows
# ℹ 1 more variable: Biomarker_2_log <dbl>
…
# see also, drop_na(Subject_Id, Sex) to drop only if Subject_Id et Sex have missing values

Recette 9c: enlever les colonnes avec données manquantes

synthetic_data |>
  # select all columns where there is no missing data
  select(where(~ !any(is.na(.))))

# A tibble: 25 × 3
   Subject_Id   Age Biomarker_1
   <chr>      <dbl>       <dbl>
 1 SUBJ1       74.9        134.
 2 SUBJ2       76.2        140.
 3 SUBJ3       37.2        117.
 4 SUBJ4       69.8        166.
 5 SUBJ5       58.5        131.
 6 SUBJ6       51.1        162.
 7 SUBJ7       64.2        173.
 8 SUBJ8       28.1        165.
 9 SUBJ9       59.4        132.
10 SUBJ10      62.3        166.
# ℹ 15 more rows
…
Recette 15b: enlever les duplicats

synthetic_data |> 
  dplyr::distinct()

# A tibble: 25 × 5
   Subject_Id   Age Sex    Biomarker_1 Biomarker_2
   <chr>      <dbl> <chr>        <dbl>       <dbl>
 1 SUBJ1       74.9 Male          134.        43.2
 2 SUBJ2       76.2 Female        140.        52.2
 3 SUBJ3       37.2 <NA>          117.       NaN  
 4 SUBJ4       69.8 Female        166.        75.8
 5 SUBJ5       58.5 <NA>          131.       NaN  
 6 SUBJ6       51.1 Male          162.        46.4
 7 SUBJ7       64.2 <NA>          173.       NaN  
 8 SUBJ8       28.1 Female        165.        60.9
 9 SUBJ9       59.4 Male          132.        42.8
10 SUBJ10      62.3 Female        166.        66.8
# ℹ 15 more rows
…
writexl::write_xlsx(x = list(sheet_1 = iris,
                             sheet_2 = synthetic_data), 
                    col_names = TRUE, 
                    path = here::here(paste0("data/wrangling_files/synthetic_data_", Sys.Date(),".xlsx")))

[Advanced] Recipe 16d:Saving and Loading R Objects

# Save an R object as a compact binary format
saveRDS(synthetic_data, file = here::here(paste0("data/wrangling_files/synthetic_data_", Sys.Date(),".rds")))

# read R object from .rds file and assign it to a variable name
df_data <- readRDS(file = here::here(paste0("data/wrangling_files/synthetic_data_2024-11-24.rds")))
df_data

# A tibble: 25 × 5
   Subject_Id   Age Sex    Biomarker_1 Biomarker_2
   <chr>      <dbl> <chr>        <dbl>       <dbl>
 1 SUBJ1       74.9 Male          134.        43.2
 2 SUBJ2       76.2 Female        140.        52.2
 3 SUBJ3       37.2 <NA>          117.       NaN  
 4 SUBJ4       69.8 Female        166.        75.8
 5 SUBJ5       58.5 <NA>          131.       NaN  
 6 SUBJ6       51.1 Male          162.        46.4
 7 SUBJ7       64.2 <NA>          173.       NaN  
 8 SUBJ8       28.1 Female        165.        60.9
 9 SUBJ9       59.4 Male          132.        42.8
10 SUBJ10      62.3 Female        166.        66.8
# ℹ 15 more rows
…
